<?xml version="1.0" encoding="utf-8"?>
<!-- Generator: Adobe Illustrator 22.0.1, SVG Export Plug-In . SVG Version: 6.00 Build 0)  -->
<svg version="1.1" id="Calque_1" xmlns="http://www.w3.org/2000/svg" xmlns:xlink="http://www.w3.org/1999/xlink" x="0px" y="0px"
	 viewBox="0 0 432 432" style="enable-background:new 0 0 432 432;" xml:space="preserve">
<style type="text/css">
	.st0{fill:#F15A24;}
	.st1{fill:#333333;}
	.st2{fill:#8BBE56;}
	.st3{fill:#D93832;}
	.st4{fill:#4F8CB2;}
	.st5{fill:#808183;}
	.st6{fill:#F1BA67;}
	.st7{fill:#7E7163;}
	.st8{fill:#E2796F;}
	.st9{fill:#39A7AD;}
	.st10{fill:#3984B2;}
	.st11{fill:#404041;}
	.st12{fill:#2C2E30;}
	.st13{fill:#F5B50C;}
	.st14{fill:#746052;}
	.st15{fill:#835F41;}
	.st16{fill:#C69C6D;}
	.st17{fill:#FF7B7B;}
	.st18{fill:#E0BB92;}
	.st19{fill:#FF9C9C;}
	.st20{fill:#FCDB21;}
	.st21{fill:#ECA665;}
	.st22{fill:#28663D;}
	.st23{fill:#BC9A72;}
	.st24{fill:#D5DEE3;}
	.st25{fill:#534741;}
	.st26{fill:#5E442F;}
	.st27{fill:#E3CAAF;}
	.st28{fill:#E9963E;}
	.st29{fill:#98C355;}
	.st30{fill:#FF6392;}
	.st31{fill:#4D4D4D;}
	.st32{fill:#E99748;}
	.st33{fill:#DD95AF;}
	.st34{fill:#48311A;}
	.st35{fill:#754C24;}
	.st36{fill:#23563D;}
	.st37{fill:#175134;}
	.st38{fill:#2AC2B5;}
	.st39{fill:#1A1A1A;}
	.st40{fill:#806D5D;}
	.st41{fill:#3B5072;}
	.st42{fill:#506172;}
	.st43{fill:#DA9C9F;}
	.st44{fill:#11937F;}
	.st45{fill:#9AB580;}
	.st46{fill:#9A4B5E;}
	.st47{fill:#1B1464;}
	.st48{fill:#BCAD96;}
	.st49{fill:#91DDDA;}
</style>
<g>
	<g>
		<path class="st12" d="M64.7,221.1h24.1l9.5,9.6v11.9H83.9v-6l-2.5-2.5h-9.1l-2.7,2.7v8.8l27.6,14.7v22.5l-9.6,9.7H63.5L54,283
			v-12.1l14.4,0l0.1,6.1l2.5,2.6l9.1,0l2.7-2.7v-8.5l-27.6-14.7v-22.9L64.7,221.1z"/>
		<path class="st12" d="M116.7,221.1h24.1l9.6,9.5V283l-9.6,9.5h-24.1l-9.5-9.5v-52.4L116.7,221.1z M124.2,279.4h9.2l2.6-2.7v-40.1
			l-2.5-2.5h-9.1l-2.7,2.7v40.1L124.2,279.4z"/>
		<path class="st12" d="M170.2,221.1h24.2l9.6,9.5v11l-14.4-0.1v-4.8L187,234h-9.1l-2.7,2.8v40.1l2.5,2.6h9.1l2.7-2.7v-5.6l14.5,0
			V283l-9.6,9.5h-24.2l-9.5-9.5v-52.4L170.2,221.1z"/>
		<path class="st12" d="M223,221.1h24.2l9.6,9.5v11l-14.4-0.1v-4.8l-2.5-2.6h-9.1l-2.7,2.8v40.1l2.5,2.6h9.1l2.7-2.7v-5.6l14.5,0
			V283l-9.6,9.5H223l-9.5-9.5v-52.4L223,221.1z"/>
		<path class="st12" d="M265.8,221h48.6v19.2h-12.9V234h-14.9v15.3h21v12.7h-21v17.5h14.9v-6.2h12.9v19.1h-0.1v0H266v-12.8h6.1
			v-45.8h-6.3V221z"/>
		<path class="st12" d="M324.4,221h40l9.5,9.5l0,27.4l-8.5,8.5l6.3,13.1h6.3v12.9h-23.6v-12.9h1.9l-5.4-12.4h-5.7l0.1,12.4h4.3v12.9
			h-25.1v-12.9h6.3v-45.7h-6.3V221z M345.1,234v20.1h11.2l3.2-3v-14l-3-3H345.1z"/>
	</g>
	<g>
		<path class="st12" d="M159.2,139.9H186v12.9h-6.2v45.7h6.2v12.9h-26.8v-12.9h6.2v-45.7h-6.2V139.9z"/>
		<path class="st12" d="M272.2,152.8L272.2,152.8c-1.9-7.2-8.8-12.6-16.8-13.2c-3.9-0.3-7.9,0.7-11.3,2.8c-3.5,2.1-6.7,5.4-8.8,8.9
			c-3.8-6.1-9.6-10.3-15.5-11.3c-5.1-0.9-10.7,0.5-14.9,3.5c-4,2.9-6.3,6.7-6.9,11.2c-0.7,4.9,0.7,10.8,4.1,17.4
			c3,5.9,7,11.3,9.7,14.8c3.4,4.5,7.4,8.8,10.6,12.2c1.9,2.1,3.9,4.1,5.9,6c2.1,2,4.2,4.1,6.2,6.3c0.3,0.3,0.6,0.4,1.1,0.5
			c0.4,0,0.8-0.2,1-0.4c10.4-9.8,18.3-18.6,25-27.6C268.6,174.2,274.8,163.8,272.2,152.8z M257,165.6l-12.4,3.6l-7.9-5.8v-8.7
			c1.6-3.7,5.1-7.6,9-10c2.9-1.7,6.2-2.5,9.5-2.3c6.3,0.5,11.9,4.6,13.8,10l-10.1,1.6L257,165.6z M245.7,172l12.5-3.6l7.5,3.9
			c-2.2,4-4.9,7.7-7.5,11.1c-1.3,1.7-2.6,3.4-4.2,5.3l-5.4,0.8l-5.9-7.9L245.7,172z M246.8,192.1l-0.9,5.7
			c-3.2,3.4-6.6,6.8-10.3,10.4c-1.4-1.5-3-3-4.4-4.4c-1.4-1.3-2.8-2.7-4.1-4.1c-0.7-0.8-1.4-1.5-2.2-2.3l-1-6.4l5.8-7.7h10.6
			L246.8,192.1z M213.9,165.9l-1.9-11.8l-10.5-1.6c0.6-1.9,1.7-3.5,3.1-5c3-3.1,7.4-4.9,11.9-4.9c5.3,0,12.6,3.2,17.2,12v8.8
			l-8.1,5.9L213.9,165.9z M212.5,168.5l12.2,3.6l2.9,9l-6.3,8.4l-4.1-0.6c-5.1-6-8.9-11.4-11.8-16.7L212.5,168.5z"/>
	</g>
</g>
</svg>
